%YAML 1.1
%TAG !u! tag:unity3d.com,2011:
--- !u!21 &2100000
Material:
  serializedVersion: 6
  m_ObjectHideFlags: 0
  m_CorrespondingSourceObject: {fileID: 0}
  m_PrefabInstance: {fileID: 0}
  m_PrefabAsset: {fileID: 0}
  m_Name: Graphs_BricksRed
  m_Shader: {fileID: -6465566751694194690, guid: 22cb2d9c7f0ab1e45af36eee95eef26f,
    type: 3}
  m_ShaderKeywords: 
  m_LightmapFlags: 4
  m_EnableInstancingVariants: 0
  m_DoubleSidedGI: 0
  m_CustomRenderQueue: -1
  stringTagMap: {}
  disabledShaderPasses: []
  m_SavedProperties:
    serializedVersion: 3
    m_TexEnvs: []
    m_Floats:
    - Vector1_31A8A163: 1.5
    - Vector1_543D1025: -0.61
    - Vector1_9567F912: 4.64
    - Vector1_A239E4E9: -127.87
    - Vector1_A3BBEA51: -0.01
    - Vector1_F7CC13AF: 0.905
    m_Colors:
    - Color_2082370E: {r: 0.3019608, g: 0.10196077, b: 0.1060899, a: 0}
    - Color_FE2EDD1B: {r: 0.8207547, g: 0.56136525, b: 0.56136525, a: 0}
